{
    "database": "samarthanDB",
    "username": "znvqfs1s0ngykxln",
    "password": "jj45l2711qqfe7ji",
    "host": "bfjrxdpxrza9qllq.cbetxkdyhwsb.us-east-1.rds.amazonaws.com",
    "port": 3306,
    "dialect": "mysql",
    "pool": {
        "minConnections": 1,
        "maxIdleTime": 9
    },
    "redis": {
        "redis_port": 10744,
        "redis_hostname": "redis-10744.c14.us-east-1-2.ec2.cloud.redislabs.com"   //OibM5JGgMJhv4htk
    }
}
